day1/xrun.log
xrun(64): 20.09-s012: (c) Copyright 1995-2021 Cadence Design Systems, Inc.
TOOL:	xrun(64)	20.09-s012: Started on Mar 23, 2026 at 07:31:10 EDT
xrun
	counter.v
	counter_test.v
	-access +rwc
	-gui
xrun: *W,WKWTLK: Waiting for a Exclusive lock on file '/home/user015/Desktop/sscd/xcelium.d/run.lnx8664.20.09.d/.xmrun.lock'. pid:18732.
Recompiling... reason: file './counter_test.v' is newer than expected.
	expected: Mon Mar 23 06:51:50 2026
	actual:   Mon Mar 23 07:30:09 2026
xrun: *W,WKWTLK: Waiting for a Exclusive lock on file '/home/user015/Desktop/sscd/xcelium.d/run.lnx8664.20.09.d/.xmlib.lock'. pid:18732.
file: counter_test.v
	module worklib.counter_test:v
		errors: 0, warnings: 0
		Caching library 'worklib' ....... Done
	Elaborating the design hierarchy:
	Top level design units:
		counter_test
	Building instance overlay tables: .................... Done
	Generating native compiled code:
		worklib.counter_test:v <0x6981bf8e>
			streams:   9, words:  5916
	Building instance specific data structures.
	Loading native compiled code:     .................... Done
	Design hierarchy summary:
		                 Instances  Unique
		Modules:                 2       2
		Registers:               4       4
		Scalar wires:            3       -
		Vectored wires:          1       -
		Always blocks:           2       2
		Initial blocks:          4       4
		Pseudo assignments:      3       3
		Simulation timescale:  1ns
	Writing initial simulation snapshot: worklib.counter_test:v

-------------------------------------
Relinquished control to SimVision...
xcelium> 
xcelium> source /home/install/XCELIUM2009/tools/xcelium/files/xmsimrc
xcelium> database -open waves -into waves.shm -default
Created default SHM database waves
xcelium> probe -create -shm counter_test.clk counter_test.count counter_test.m counter_test.rst
Created probe 1
xcelium> run
Time=                   0 rst = 0 clk = 0 count = 00000000
Time=                   5 rst = 1 clk = 1 count = 00000001
Time=                  10 rst = 1 clk = 0 count = 00000001
Time=                  15 rst = 1 clk = 1 count = 00000010
Time=                  20 rst = 1 clk = 0 count = 00000010
Time=                  25 rst = 1 clk = 1 count = 00000011
Time=                  30 rst = 1 clk = 0 count = 00000011
Time=                  35 rst = 1 clk = 1 count = 00000100
Time=                  40 rst = 1 clk = 0 count = 00000100
Time=                  45 rst = 1 clk = 1 count = 00000101
Time=                  50 rst = 1 clk = 0 count = 00000101
Time=                  55 rst = 1 clk = 1 count = 00000110
Time=                  60 rst = 1 clk = 0 count = 00000110
Time=                  65 rst = 1 clk = 1 count = 00000111
Time=                  70 rst = 1 clk = 0 count = 00000111
Time=                  75 rst = 1 clk = 1 count = 00001000
Time=                  80 rst = 1 clk = 0 count = 00001000
Time=                  85 rst = 1 clk = 1 count = 00001001
Time=                  90 rst = 1 clk = 0 count = 00001001
Time=                  95 rst = 1 clk = 1 count = 00001010
Time=                 100 rst = 1 clk = 0 count = 00001010
Time=                 105 rst = 1 clk = 1 count = 00001011
Time=                 110 rst = 1 clk = 0 count = 00001011
Time=                 115 rst = 1 clk = 1 count = 00001100
Time=                 120 rst = 1 clk = 0 count = 00001100
Time=                 125 rst = 1 clk = 1 count = 00001101
Time=                 130 rst = 1 clk = 0 count = 00001101
Time=                 135 rst = 1 clk = 1 count = 00001110
Time=                 140 rst = 1 clk = 0 count = 00001110
Time=                 145 rst = 1 clk = 1 count = 00001111
Time=                 150 rst = 1 clk = 0 count = 00001111
Time=                 155 rst = 1 clk = 1 count = 00010000
Time=                 160 rst = 1 clk = 0 count = 00010000
Time=                 165 rst = 1 clk = 1 count = 00010001
Time=                 170 rst = 1 clk = 0 count = 00010001
Time=                 175 rst = 1 clk = 1 count = 00010010
Time=                 180 rst = 1 clk = 0 count = 00010010
Time=                 185 rst = 1 clk = 1 count = 00010011
Time=                 190 rst = 1 clk = 0 count = 00010011
Time=                 195 rst = 1 clk = 1 count = 00010100
Time=                 200 rst = 1 clk = 0 count = 00010100
Time=                 205 rst = 1 clk = 1 count = 00010011
Time=                 210 rst = 1 clk = 0 count = 00010011
Time=                 215 rst = 1 clk = 1 count = 00010010
Time=                 220 rst = 1 clk = 0 count = 00010010
Time=                 225 rst = 1 clk = 1 count = 00010001
Time=                 230 rst = 1 clk = 0 count = 00010001
Time=                 235 rst = 1 clk = 1 count = 00010000
Time=                 240 rst = 1 clk = 0 count = 00010000
Time=                 245 rst = 1 clk = 1 count = 00001111
Time=                 250 rst = 1 clk = 0 count = 00001111
Time=                 255 rst = 1 clk = 1 count = 00001110
Time=                 260 rst = 1 clk = 0 count = 00001110
Time=                 265 rst = 1 clk = 1 count = 00001101
Time=                 270 rst = 1 clk = 0 count = 00001101
Time=                 275 rst = 1 clk = 1 count = 00001100
Time=                 280 rst = 1 clk = 0 count = 00001100
Time=                 285 rst = 1 clk = 1 count = 00001011
Time=                 290 rst = 1 clk = 0 count = 00001011
Time=                 295 rst = 1 clk = 1 count = 00001010
Time=                 300 rst = 1 clk = 0 count = 00001010
Time=                 305 rst = 1 clk = 1 count = 00001001
Time=                 310 rst = 1 clk = 0 count = 00001001
Time=                 315 rst = 1 clk = 1 count = 00001000
Time=                 320 rst = 1 clk = 0 count = 00001000
Time=                 325 rst = 1 clk = 1 count = 00000111
Time=                 330 rst = 1 clk = 0 count = 00000111
Time=                 335 rst = 1 clk = 1 count = 00000110
Time=                 340 rst = 1 clk = 0 count = 00000110
Time=                 345 rst = 1 clk = 1 count = 00000101
Time=                 350 rst = 1 clk = 0 count = 00000101
Time=                 355 rst = 1 clk = 1 count = 00000100
Time=                 360 rst = 1 clk = 0 count = 00000100
Time=                 365 rst = 1 clk = 1 count = 00000011
Time=                 370 rst = 1 clk = 0 count = 00000011
Time=                 375 rst = 1 clk = 1 count = 00000010
Time=                 380 rst = 1 clk = 0 count = 00000010
Time=                 385 rst = 1 clk = 1 count = 00000001
Time=                 390 rst = 1 clk = 0 count = 00000001
Time=                 395 rst = 1 clk = 1 count = 00000000
Simulation complete via $finish(1) at time 400 NS + 0
./counter_test.v:24 #400 $finish;
xcelium> TOOL:	xrun(64)	20.09-s012: Exiting on Mar 23, 2026 at 07:38:52 EDT  (total: 00:07:42)
