day4mealy1010/dump.vcd
$date
    Mar 26, 2026  15:10:30
$end
$version
    TOOL:	xmsim(64)	20.09-s012
$end
$timescale
    1 ps
$end

$scope module seq_det_1010_mealy_tb $end
$var reg       1 !    clk $end
$var reg       1 "    reset $end
$var reg       1 #    in $end
$var wire      1 $    out  $end
$var integer  32 %    i $end

$scope module DUT $end
$var wire      1 &    clk  $end
$var wire      1 '    reset  $end
$var wire      1 (    din  $end
$var reg       1 )    dout $end
$var parameter 32 *    S0 $end
$var parameter 32 +    S1 $end
$var parameter 32 ,    S2 $end
$var parameter 32 -    S3 $end
$var reg       3 .    state [2:0] $end
$var reg       3 /    next_state [2:0] $end
$upscope $end

$upscope $end

$enddefinitions $end
$dumpvars
b11 -
b10 ,
b1 +
b0 *
0!
1"
0#
0$
bx %
0&
1'
0(
0)
b0 .
b0 /
$end
#5000
1!
0"
b0 %
0'
1&
#10000
0!
0&
#15000
1!
1&
#16000
b1 %
#20000
0!
0&
#25000
1!
1&
#26000
1#
b10 %
1(
b1 /
#30000
0!
0&
#35000
1!
1&
b1 .
#36000
b11 %
#40000
0!
0&
#45000
1!
1&
#46000
b100 %
#50000
0!
0&
#55000
1!
1&
#56000
b101 %
#60000
0!
0&
#65000
1!
1&
#66000
b110 %
#70000
0!
0&
#75000
1!
1&
#76000
b111 %
#80000
0!
0&
#85000
1!
1&
#86000
0#
b1000 %
0(
b10 /
#90000
0!
0&
#95000
1!
1&
b10 .
b0 /
#96000
1#
b1001 %
1(
b11 /
#100000
0!
0&
#105000
1!
1&
b11 .
b10 /
#106000
b1010 %
#110000
0!
0&
#115000
1!
1&
b10 .
b11 /
#116000
0#
b1011 %
0(
b0 /
#120000
0!
0&
#125000
1!
1&
b0 .
#126000
1#
b1100 %
1(
b1 /
#130000
0!
0&
#135000
1!
1&
b1 .
#136000
b1101 %
#140000
0!
0&
#145000
1!
1&
#146000
0#
b1110 %
0(
b10 /
#150000
0!
0&
#155000
1!
1&
b10 .
b0 /
#156000
1#
b1111 %
1(
b11 /
#160000
0!
0&
#165000
1!
1&
b11 .
b10 /
#166000
0#
b10000 %
0(
b0 /
1)
1$
#170000
0!
0&
#175000
1!
1&
b0 .
0)
0$
#176000
1#
b10001 %
1(
b1 /
#180000
0!
0&
#185000
1!
1&
b1 .
#186000
0#
b10010 %
0(
b10 /
#190000
0!
0&
#195000
1!
1&
b10 .
b0 /
#196000
1#
b10011 %
1(
b11 /
#200000
0!
0&
#205000
1!
1&
b11 .
b10 /
#206000
b10100 %
#210000
0!
0&
#215000
1!
1&
b10 .
b11 /
#216000
0#
b10101 %
0(
b0 /
#220000
0!
0&
#225000
1!
1&
b0 .
#226000
1#
b10110 %
1(
b1 /
#230000
0!
0&
#235000
1!
1&
b1 .
#236000
0#
b10111 %
0(
b10 /
#240000
0!
0&
#245000
1!
1&
b10 .
b0 /
#246000
b11000 %
#250000
0!
0&
#255000
1!
1&
b0 .
#256000
b11001 %
#260000
0!
0&
#265000
1!
1&
#266000
1#
b11010 %
1(
b1 /
#270000
0!
0&
#275000
1!
1&
b1 .
#276000
0#
b11011 %
0(
b10 /
#280000
0!
0&
#285000
1!
1&
b10 .
b0 /
#286000
1#
b11100 %
1(
b11 /
#290000
0!
0&
#295000
1!
1&
b11 .
b10 /
#296000
b11101 %
#300000
0!
0&
#305000
1!
1&
b10 .
b11 /
#306000
b11110 %
#310000
0!
0&
#315000
1!
1&
b11 .
b10 /
#316000
b11111 %
#320000
0!
0&
#325000
1!
1&
b10 .
b11 /
#326000
0#
b100000 %
0(
b0 /
#330000
0!
0&
#335000
1!
1&
b0 .
#336000
b100001 %
#340000
0!
0&
#345000
1!
1&
#346000
b100010 %
#350000
0!
0&
#355000
1!
1&
#356000
b100011 %
#360000
0!
0&
#365000
1!
1&
#366000
1#
b100100 %
1(
b1 /
#370000
0!
0&
#375000
1!
1&
b1 .
#376000
0#
b100101 %
0(
b10 /
#380000
0!
0&
#385000
1!
1&
b10 .
b0 /
#386000
1#
b100110 %
1(
b11 /
#390000
0!
0&
#395000
1!
1&
b11 .
b10 /
#396000
b100111 %
#400000
0!
0&
#405000
1!
1&
b10 .
b11 /
#406000
b101000 %
#410000
0!
0&
#415000
1!
1&
b11 .
b10 /
#416000
b101001 %
#420000
0!
0&
#425000
1!
1&
b10 .
b11 /
#426000
b101010 %
#430000
0!
0&
#435000
1!
1&
b11 .
b10 /
#436000
0#
b101011 %
0(
b0 /
1)
1$
#440000
0!
0&
#445000
1!
1&
b0 .
0)
0$
#446000
b101100 %
#450000
0!
0&
#455000
1!
1&
#456000
1#
b101101 %
1(
b1 /
#460000
0!
0&
#465000
1!
1&
b1 .
#466000
b101110 %
#470000
0!
0&
#475000
1!
1&
#476000
b101111 %
#480000
0!
0&
#485000
1!
1&
#486000
0#
b110000 %
0(
b10 /
#490000
0!
0&
#495000
1!
1&
b10 .
b0 /
#496000
b110001 %
#500000
0!
0&
#505000
1!
1&
b0 .
#506000
b110010 %
#510000
0!
0&
#515000
1!
1&
#516000
b110011 %
#520000
0!
0&
#525000
1!
1&
#526000
b110100 %
#530000
0!
0&
#535000
1!
1&
#536000
1#
b110101 %
1(
b1 /
#540000
0!
0&
#545000
1!
1&
b1 .
#546000
0#
b110110 %
0(
b10 /
#550000
0!
0&
#555000
1!
1&
b10 .
b0 /
#556000
b110111 %
#560000
0!
0&
#565000
1!
1&
b0 .
#566000
1#
b111000 %
1(
b1 /
#570000
0!
0&
#575000
1!
1&
b1 .
#576000
b111001 %
#580000
0!
0&
#585000
1!
1&
#586000
0#
b111010 %
0(
b10 /
#590000
0!
0&
#595000
1!
1&
b10 .
b0 /
#596000
b111011 %
#600000
0!
0&
#605000
1!
1&
b0 .
#606000
b111100 %
#610000
0!
0&
#615000
1!
1&
#616000
b111101 %
#620000
0!
0&
#625000
1!
1&
#626000
b111110 %
#630000
0!
0&
#635000
1!
1&
#636000
1#
b111111 %
1(
b1 /
#640000
0!
0&
#645000
1!
1&
b1 .
#646000
b1000000 %
#650000
0!
0&
#655000
1!
1&
#656000
b1000001 %
#660000
0!
0&
#665000
1!
1&
#666000
b1000010 %
#670000
0!
0&
#675000
1!
1&
#676000
b1000011 %
#680000
0!
0&
#685000
1!
1&
#686000
0#
b1000100 %
0(
b10 /
#690000
0!
0&
#695000
1!
1&
b10 .
b0 /
#696000
b1000101 %
#700000
0!
0&
#705000
1!
1&
b0 .
#706000
1#
b1000110 %
1(
b1 /
#710000
0!
0&
#715000
1!
1&
b1 .
#716000
b1000111 %
#720000
0!
0&
#725000
1!
1&
#726000
b1001000 %
#730000
0!
0&
#735000
1!
1&
#736000
0#
b1001001 %
0(
b10 /
#740000
0!
0&
#745000
1!
1&
b10 .
b0 /
#746000
b1001010 %
#750000
0!
0&
#755000
1!
1&
b0 .
#756000
1#
b1001011 %
1(
b1 /
#760000
0!
0&
#765000
1!
1&
b1 .
#766000
b1001100 %
#770000
0!
0&
#775000
1!
1&
#776000
0#
b1001101 %
0(
b10 /
#780000
0!
0&
#785000
1!
1&
b10 .
b0 /
#786000
1#
b1001110 %
1(
b11 /
#790000
0!
0&
#795000
1!
1&
b11 .
b10 /
#796000
b1001111 %
#800000
0!
0&
#805000
1!
1&
b10 .
b11 /
#806000
0#
b1010000 %
0(
b0 /
#810000
0!
0&
#815000
1!
1&
b0 .
#816000
1#
b1010001 %
1(
b1 /
#820000
0!
0&
#825000
1!
1&
b1 .
#826000
b1010010 %
#830000
0!
0&
#835000
1!
1&
#836000
b1010011 %
#840000
0!
0&
#845000
1!
1&
#846000
0#
b1010100 %
0(
b10 /
#850000
0!
0&
#855000
1!
1&
b10 .
b0 /
#856000
1#
b1010101 %
1(
b11 /
#860000
0!
0&
#865000
1!
1&
b11 .
b10 /
#866000
b1010110 %
#870000
0!
0&
#875000
1!
1&
b10 .
b11 /
#876000
0#
b1010111 %
0(
b0 /
#880000
0!
0&
#885000
1!
1&
b0 .
#886000
b1011000 %
#890000
0!
0&
#895000
1!
1&
#896000
b1011001 %
#900000
0!
0&
#905000
1!
1&
#906000
b1011010 %
#910000
0!
0&
#915000
1!
1&
#916000
1#
b1011011 %
1(
b1 /
#920000
0!
0&
#925000
1!
1&
b1 .
#926000
b1011100 %
#930000
0!
0&
#935000
1!
1&
#936000
0#
b1011101 %
0(
b10 /
#940000
0!
0&
#945000
1!
1&
b10 .
b0 /
#946000
b1011110 %
#950000
0!
0&
#955000
1!
1&
b0 .
#956000
1#
b1011111 %
1(
b1 /
#960000
0!
0&
#965000
1!
1&
b1 .
#966000
b1100000 %
#970000
0!
0&
#975000
1!
1&
#976000
b1100001 %
#980000
0!
0&
#985000
1!
1&
#986000
b1100010 %
#990000
0!
0&
#995000
1!
1&
#996000
b1100011 %
#1000000
0!
0&
#1005000
1!
1&
#1006000
0#
b1100100 %
0(
b10 /
#1010000
0!
0&
#1015000
1!
1&
b10 .
b0 /
#1020000
0!
0&
#1025000
1!
1&
b0 .
