day4moore1010/dump.vcd
$date
    Mar 26, 2026  15:13:20
$end
$version
    TOOL:	xmsim(64)	20.09-s012
$end
$timescale
    1 ps
$end

$scope module seq_detect_1010_moore_tb $end
$var reg       1 !    clk $end
$var reg       1 "    reset $end
$var reg       1 #    in $end
$var wire      1 $    out  $end
$var integer  32 %    i $end

$scope module DUT $end
$var wire      1 &    clk  $end
$var wire      1 '    reset  $end
$var wire      1 (    din  $end
$var reg       1 )    dout $end
$var parameter 32 *    S0 $end
$var parameter 32 +    S1 $end
$var parameter 32 ,    S2 $end
$var parameter 32 -    S3 $end
$var parameter 32 .    S4 $end
$var reg       3 /    state [2:0] $end
$upscope $end

$upscope $end

$enddefinitions $end
$dumpvars
b100 .
b11 -
b10 ,
b1 +
b0 *
0!
1"
0#
0$
bx %
0&
1'
0(
0)
b0 /
$end
#5000
1!
0"
b0 %
0'
1&
#10000
0!
0&
#15000
1!
1&
#16000
1#
b1 %
1(
#20000
0!
0&
#25000
1!
1&
b1 /
#26000
0#
b10 %
0(
#30000
0!
0&
#35000
1!
1&
b10 /
#36000
1#
b11 %
1(
#40000
0!
0&
#45000
1!
1&
b11 /
#46000
0#
b100 %
0(
#50000
0!
0&
#55000
1!
1&
b100 /
1)
1$
#56000
1#
b101 %
1(
#60000
0!
0&
#65000
1!
1&
b11 /
#66000
0#
b110 %
0(
#70000
0!
0&
#75000
1!
1&
b100 /
#76000
1#
b111 %
1(
#80000
0!
0&
#85000
1!
1&
b11 /
#86000
0#
b1000 %
0(
#90000
0!
0&
#95000
1!
1&
b100 /
#96000
1#
b1001 %
1(
#100000
0!
0&
#105000
1!
1&
b11 /
#106000
0#
b1010 %
0(
#110000
0!
0&
#115000
1!
1&
b100 /
#116000
1#
b1011 %
1(
#120000
0!
0&
#125000
1!
1&
b11 /
#126000
0#
b1100 %
0(
#130000
0!
0&
#135000
1!
1&
b100 /
#136000
1#
b1101 %
1(
#140000
0!
0&
#145000
1!
1&
b11 /
#146000
0#
b1110 %
0(
#150000
0!
0&
#155000
1!
1&
b100 /
#156000
1#
b1111 %
1(
#160000
0!
0&
#165000
1!
1&
b11 /
#166000
0#
b10000 %
0(
#170000
0!
0&
#175000
1!
1&
b100 /
#176000
1#
b10001 %
1(
#180000
0!
0&
#185000
1!
1&
b11 /
#186000
0#
b10010 %
0(
#190000
0!
0&
#195000
1!
1&
b100 /
#196000
1#
b10011 %
1(
#200000
0!
0&
#205000
1!
1&
b11 /
#206000
0#
b10100 %
0(
#210000
0!
0&
#215000
1!
1&
b100 /
#216000
1#
b10101 %
1(
#220000
0!
0&
#225000
1!
1&
b11 /
#226000
0#
b10110 %
0(
#230000
0!
0&
#235000
1!
1&
b100 /
#236000
1#
b10111 %
1(
#240000
0!
0&
#245000
1!
1&
b11 /
#246000
0#
b11000 %
0(
#250000
0!
0&
#255000
1!
1&
b100 /
#256000
1#
b11001 %
1(
#260000
0!
0&
#265000
1!
1&
b11 /
#266000
0#
b11010 %
0(
#270000
0!
0&
#275000
1!
1&
b100 /
#276000
1#
b11011 %
1(
#280000
0!
0&
#285000
1!
1&
b11 /
#286000
0#
b11100 %
0(
#290000
0!
0&
#295000
1!
1&
b100 /
#296000
1#
b11101 %
1(
#300000
0!
0&
#305000
1!
1&
b11 /
#306000
0#
b11110 %
0(
#310000
0!
0&
#315000
1!
1&
b100 /
#316000
1#
b11111 %
1(
#320000
0!
0&
#325000
1!
1&
b11 /
#326000
0#
b100000 %
0(
#330000
0!
0&
#335000
1!
1&
b100 /
#336000
1#
b100001 %
1(
#340000
0!
0&
#345000
1!
1&
b11 /
#346000
0#
b100010 %
0(
#350000
0!
0&
#355000
1!
1&
b100 /
#356000
1#
b100011 %
1(
#360000
0!
0&
#365000
1!
1&
b11 /
#366000
0#
b100100 %
0(
#370000
0!
0&
#375000
1!
1&
b100 /
#376000
1#
b100101 %
1(
#380000
0!
0&
#385000
1!
1&
b11 /
#386000
0#
b100110 %
0(
#390000
0!
0&
#395000
1!
1&
b100 /
#396000
1#
b100111 %
1(
#400000
0!
0&
#405000
1!
1&
b11 /
#406000
0#
b101000 %
0(
#410000
0!
0&
#415000
1!
1&
b100 /
#416000
1#
b101001 %
1(
#420000
0!
0&
#425000
1!
1&
b11 /
#426000
0#
b101010 %
0(
#430000
0!
0&
#435000
1!
1&
b100 /
#436000
1#
b101011 %
1(
#440000
0!
0&
#445000
1!
1&
b11 /
#446000
0#
b101100 %
0(
#450000
0!
0&
#455000
1!
1&
b100 /
#456000
1#
b101101 %
1(
#460000
0!
0&
#465000
1!
1&
b11 /
#466000
0#
b101110 %
0(
#470000
0!
0&
#475000
1!
1&
b100 /
#476000
1#
b101111 %
1(
#480000
0!
0&
#485000
1!
1&
b11 /
#486000
0#
b110000 %
0(
#490000
0!
0&
#495000
1!
1&
b100 /
#496000
1#
b110001 %
1(
#500000
0!
0&
#505000
1!
1&
b11 /
#506000
0#
b110010 %
0(
#510000
0!
0&
#515000
1!
1&
b100 /
#516000
1#
b110011 %
1(
#520000
0!
0&
#525000
1!
1&
b11 /
#526000
0#
b110100 %
0(
#530000
0!
0&
#535000
1!
1&
b100 /
#536000
1#
b110101 %
1(
#540000
0!
0&
#545000
1!
1&
b11 /
#546000
0#
b110110 %
0(
#550000
0!
0&
#555000
1!
1&
b100 /
#556000
1#
b110111 %
1(
#560000
0!
0&
#565000
1!
1&
b11 /
#566000
0#
b111000 %
0(
#570000
0!
0&
#575000
1!
1&
b100 /
#576000
1#
b111001 %
1(
#580000
0!
0&
#585000
1!
1&
b11 /
#586000
0#
b111010 %
0(
#590000
0!
0&
#595000
1!
1&
b100 /
#596000
1#
b111011 %
1(
#600000
0!
0&
#605000
1!
1&
b11 /
#606000
0#
b111100 %
0(
#610000
0!
0&
#615000
1!
1&
b100 /
#616000
1#
b111101 %
1(
#620000
0!
0&
#625000
1!
1&
b11 /
#626000
0#
b111110 %
0(
#630000
0!
0&
#635000
1!
1&
b100 /
#636000
1#
b111111 %
1(
#640000
0!
0&
#645000
1!
1&
b11 /
#646000
0#
b1000000 %
0(
#650000
0!
0&
#655000
1!
1&
b100 /
#656000
1#
b1000001 %
1(
#660000
0!
0&
#665000
1!
1&
b11 /
#666000
0#
b1000010 %
0(
#670000
0!
0&
#675000
1!
1&
b100 /
#676000
1#
b1000011 %
1(
#680000
0!
0&
#685000
1!
1&
b11 /
#686000
0#
b1000100 %
0(
#690000
0!
0&
#695000
1!
1&
b100 /
#696000
1#
b1000101 %
1(
#700000
0!
0&
#705000
1!
1&
b11 /
#706000
0#
b1000110 %
0(
#710000
0!
0&
#715000
1!
1&
b100 /
#716000
1#
b1000111 %
1(
#720000
0!
0&
#725000
1!
1&
b11 /
#726000
0#
b1001000 %
0(
#730000
0!
0&
#735000
1!
1&
b100 /
#736000
1#
b1001001 %
1(
#740000
0!
0&
#745000
1!
1&
b11 /
#746000
0#
b1001010 %
0(
#750000
0!
0&
#755000
1!
1&
b100 /
#756000
1#
b1001011 %
1(
#760000
0!
0&
#765000
1!
1&
b11 /
#766000
0#
b1001100 %
0(
#770000
0!
0&
#775000
1!
1&
b100 /
#776000
1#
b1001101 %
1(
#780000
0!
0&
#785000
1!
1&
b11 /
#786000
0#
b1001110 %
0(
#790000
0!
0&
#795000
1!
1&
b100 /
#796000
1#
b1001111 %
1(
#800000
0!
0&
#805000
1!
1&
b11 /
#806000
0#
b1010000 %
0(
#810000
0!
0&
#815000
1!
1&
b100 /
#816000
1#
b1010001 %
1(
#820000
0!
0&
#825000
1!
1&
b11 /
#826000
0#
b1010010 %
0(
#830000
0!
0&
#835000
1!
1&
b100 /
#836000
1#
b1010011 %
1(
#840000
0!
0&
#845000
1!
1&
b11 /
#846000
0#
b1010100 %
0(
#850000
0!
0&
#855000
1!
1&
b100 /
#856000
1#
b1010101 %
1(
#860000
0!
0&
#865000
1!
1&
b11 /
#866000
0#
b1010110 %
0(
#870000
0!
0&
#875000
1!
1&
b100 /
#876000
1#
b1010111 %
1(
#880000
0!
0&
#885000
1!
1&
b11 /
#886000
0#
b1011000 %
0(
#890000
0!
0&
#895000
1!
1&
b100 /
#896000
1#
b1011001 %
1(
#900000
0!
0&
#905000
1!
1&
b11 /
#906000
0#
b1011010 %
0(
#910000
0!
0&
#915000
1!
1&
b100 /
#916000
1#
b1011011 %
1(
#920000
0!
0&
#925000
1!
1&
b11 /
#926000
0#
b1011100 %
0(
#930000
0!
0&
#935000
1!
1&
b100 /
#936000
1#
b1011101 %
1(
#940000
0!
0&
#945000
1!
1&
b11 /
#946000
0#
b1011110 %
0(
#950000
0!
0&
#955000
1!
1&
b100 /
#956000
1#
b1011111 %
1(
#960000
0!
0&
#965000
1!
1&
b11 /
#966000
0#
b1100000 %
0(
#970000
0!
0&
#975000
1!
1&
b100 /
#976000
1#
b1100001 %
1(
#980000
0!
0&
#985000
1!
1&
b11 /
#986000
0#
b1100010 %
0(
#990000
0!
0&
#995000
1!
1&
b100 /
#996000
1#
b1100011 %
1(
#1000000
0!
0&
#1005000
1!
1&
b11 /
#1006000
0#
b1100100 %
0(
#1010000
0!
0&
#1015000
1!
1&
b100 /
#1020000
0!
0&
#1025000
1!
1&
b0 /
0)
0$
